…
```{r}
> renameMetaData(metalyzer, Method = `Sample Description`)
> filterMetaData(metalyzer, !is.na(Tissue))
> aggregated_data <- aggregateData(metalyzer, Tissue, Method)
> aggregated_data
# A tibble: 62,064 × 8
# Groups:   Tissue, Method, Metabolite [20,688]
   ID    Tissue    Method Metabolite Class Concentration Status Valid_Replicates
   <fct> <fct>     <fct>  <fct>      <fct>         <dbl> <fct>  <lgl>           
 1 9     Drosophi… 1      C0         Acyl…       203     Valid  TRUE            
 2 10    Drosophi… 1      C0         Acyl…        86.8   Valid  TRUE            
 3 11    Drosophi… 1      C0         Acyl…       246     Valid  TRUE            
 4 9     Drosophi… 1      C2         Acyl…        29.5   Valid  TRUE            
 5 10    Drosophi… 1      C2         Acyl…        15.8   Valid  TRUE            
 6 11    Drosophi… 1      C2         Acyl…        34.6   Valid  TRUE            
 7 9     Drosophi… 1      C3         Acyl…        39.2   Valid  TRUE            
 8 10    Drosophi… 1      C3         Acyl…         9.29  Valid  TRUE            
 9 11    Drosophi… 1      C3         Acyl…        49.9   Valid  TRUE            
10 9     Drosophi… 1      C3-DC (C4… Acyl…         0.057 LOD    FALSE           
# ℹ 62,054 more rows
# ℹ Use `print(n = ...)` to see more rows
```
…
